<?xml version="1.0" encoding="UTF-8" standalone="no"?>
<!-- Created with Inkscape (http://www.inkscape.org/) -->

<svg
   width="512"
   height="512"
   viewBox="0 0 512 512"
   version="1.1"
   id="svg5"
   xmlns:xlink="http://www.w3.org/1999/xlink"
   xmlns="http://www.w3.org/2000/svg"
   xmlns:svg="http://www.w3.org/2000/svg">
  <defs
     id="defs2">
    <linearGradient
       id="linearGradient126978">
      <stop
         style="stop-color:#ffe23e;stop-opacity:1;"
         offset="0"
         id="stop126976" />
    </linearGradient>
    <linearGradient
       id="day-flower">
      <stop
         style="stop-color:#ffe23e;stop-opacity:1;"
         offset="0"
         id="stop126910" />
    </linearGradient>
    <linearGradient
       id="linearGradient117979">
      <stop
         style="stop-color:#fff585;stop-opacity:1;"
         offset="0"
         id="stop117977" />
    </linearGradient>
    <linearGradient
       id="linearGradient113394">
      <stop
         style="stop-color:#ffffff;stop-opacity:1;"
         offset="0"
         id="stop113392" />
    </linearGradient>
    <linearGradient
       id="linearGradient108849">
      <stop
         style="stop-color:#ffffff;stop-opacity:1;"
         offset="0"
         id="stop108847" />
    </linearGradient>
    <linearGradient
       id="linearGradient108614">
      <stop
         style="stop-color:#ffffff;stop-opacity:1;"
         offset="0"
         id="stop108612" />
    </linearGradient>
    <linearGradient
       id="linearGradient1103603">
      <stop
         style="stop-color:#1a7374;stop-opacity:1;"
         offset="0"
         id="stop1103601" />
    </linearGradient>
    <linearGradient
       id="linearGradient1088623">
      <stop
         style="stop-color:#0d4e87;stop-opacity:1;"
         offset="0"
         id="stop1088621" />
    </linearGradient>
    <linearGradient
       id="linearGradient1008028">
      <stop
         style="stop-color:#1a7374;stop-opacity:1;"
         offset="0"
         id="stop1008026" />
    </linearGradient>
    <linearGradient
       id="linearGradient985290">
      <stop
         style="stop-color:#ffffff;stop-opacity:1"
         offset="0"
         id="stop985286" />
      <stop
         style="stop-color:#ffffff;stop-opacity:0"
         offset="1"
         id="stop985288" />
    </linearGradient>
    <linearGradient
       id="linearGradient927065">
      <stop
         style="stop-color:#1a7374;stop-opacity:1;"
         offset="0"
         id="stop927063" />
    </linearGradient>
    <linearGradient
       id="linearGradient758633">
      <stop
         style="stop-color:#12762a;stop-opacity:1;"
         offset="0"
         id="stop758631" />
    </linearGradient>
    <linearGradient
       id="linearGradient744385">
      <stop
         style="stop-color:#000000;stop-opacity:1;"
         offset="0"
         id="stop744383" />
    </linearGradient>
    <linearGradient
       id="linearGradient667915">
      <stop
         style="stop-color:#ffffff;stop-opacity:1;"
         offset="0"
         id="stop667913" />
    </linearGradient>
    <linearGradient
       id="linearGradient667873">
      <stop
         style="stop-color:#000000;stop-opacity:1;"
         offset="0"
         id="stop667871" />
    </linearGradient>
    <linearGradient
       id="linearGradient578021">
      <stop
         style="stop-color:#000000;stop-opacity:1;"
         offset="0"
         id="stop578019" />
    </linearGradient>
    <linearGradient
       id="linearGradient540101">
      <stop
         style="stop-color:#000000;stop-opacity:1;"
         offset="0"
         id="stop540099" />
    </linearGradient>
    <linearGradient
       id="teal-10">
      <stop
         style="stop-color:#edfbff;stop-opacity:1;"
         offset="0"
         id="stop499112" />
    </linearGradient>
    <linearGradient
       id="linearGradient499072">
      <stop
         style="stop-color:#edfbff;stop-opacity:1;"
         offset="0"
         id="stop499070" />
    </linearGradient>
    <linearGradient
       id="linearGradient481348">
      <stop
         style="stop-color:#edfbff;stop-opacity:1;"
         offset="0"
         id="stop481346" />
    </linearGradient>
    <linearGradient
       id="linearGradient473279">
      <stop
         style="stop-color:#ffffff;stop-opacity:1;"
         offset="0"
         id="stop473277" />
    </linearGradient>
    <linearGradient
       id="linearGradient469064">
      <stop
         style="stop-color:#000000;stop-opacity:1;"
         offset="0"
         id="stop469062" />
    </linearGradient>
    <linearGradient
       id="linearGradient468971">
      <stop
         style="stop-color:#ffffff;stop-opacity:1;"
         offset="0"
         id="stop468969" />
    </linearGradient>
    <linearGradient
       id="linearGradient460556">
      <stop
         style="stop-color:#000000;stop-opacity:1;"
         offset="0"
         id="stop460554" />
    </linearGradient>
    <linearGradient
       id="linearGradient370307">
      <stop
         style="stop-color:#ffffff;stop-opacity:1;"
         offset="0"
         id="stop370305" />
    </linearGradient>
    <linearGradient
       id="linearGradient345040">
      <stop
         style="stop-color:#ffffff;stop-opacity:1;"
         offset="0"
         id="stop345038" />
    </linearGradient>
    <linearGradient
       id="linearGradient345034">
      <stop
         style="stop-color:#ff0000;stop-opacity:1;"
         offset="0"
         id="stop345032" />
    </linearGradient>
    <linearGradient
       id="linearGradient278281">
      <stop
         style="stop-color:#1a7374;stop-opacity:1;"
         offset="0"
         id="stop278279" />
    </linearGradient>
    <linearGradient
       id="emerald-dark">
      <stop
         style="stop-color:#1a7374;stop-opacity:1;"
         offset="0"
         id="stop274044" />
    </linearGradient>
    <linearGradient
       id="linearGradient219091">
      <stop
         style="stop-color:#ffd5d5;stop-opacity:1;"
         offset="0"
         id="stop219089" />
    </linearGradient>
    <linearGradient
       id="linearGradient218356">
      <stop
         style="stop-color:#ffd5d5;stop-opacity:1;"
         offset="0"
         id="stop218354" />
    </linearGradient>
    <linearGradient
       id="linearGradient188758">
      <stop
         style="stop-color:#cc776e;stop-opacity:1;"
         offset="0"
         id="stop188756" />
    </linearGradient>
    <linearGradient
       id="linearGradient147405">
      <stop
         style="stop-color:#f79a91;stop-opacity:1;"
         offset="0"
         id="stop147403" />
    </linearGradient>
    <linearGradient
       id="linearGradient68199">
      <stop
         style="stop-color:#ffffff;stop-opacity:1;"
         offset="0"
         id="stop68197" />
    </linearGradient>
    <linearGradient
       id="linearGradient43272">
      <stop
         style="stop-color:#fff585;stop-opacity:1;"
         offset="0"
         id="stop43270" />
    </linearGradient>
    <linearGradient
       id="linearGradient43152">
      <stop
         style="stop-color:#fff585;stop-opacity:1;"
         offset="0"
         id="stop43150" />
    </linearGradient>
    <linearGradient
       id="linearGradient43090">
      <stop
         style="stop-color:#fff585;stop-opacity:1;"
         offset="0"
         id="stop43088" />
    </linearGradient>
    <linearGradient
       id="linearGradient42492">
      <stop
         style="stop-color:#0d4e87;stop-opacity:1;"
         offset="0"
         id="stop42490" />
    </linearGradient>
    <linearGradient
       id="linearGradient26043">
      <stop
         style="stop-color:#7ebfb4;stop-opacity:1;"
         offset="0"
         id="stop26041" />
    </linearGradient>
    <linearGradient
       id="linearGradient1062549">
      <stop
         style="stop-color:#9cd7cd;stop-opacity:1;"
         offset="0"
         id="stop1062547" />
    </linearGradient>
    <linearGradient
       id="linearGradient1062543">
      <stop
         style="stop-color:#87b0aa;stop-opacity:1;"
         offset="0"
         id="stop1062541" />
    </linearGradient>
    <linearGradient
       id="teal-60">
      <stop
         style="stop-color:#87b0aa;stop-opacity:1;"
         offset="0"
         id="stop1055203" />
    </linearGradient>
    <linearGradient
       id="teal-70">
      <stop
         style="stop-color:#5c8d88;stop-opacity:1;"
         offset="0"
         id="stop1025893" />
    </linearGradient>
    <linearGradient
       id="linearGradient1018406">
      <stop
         style="stop-color:#bf7106;stop-opacity:1;"
         offset="0"
         id="stop1018404" />
    </linearGradient>
    <linearGradient
       id="linearGradient1014705">
      <stop
         style="stop-color:#bf7106;stop-opacity:1;"
         offset="0"
         id="stop1014703" />
    </linearGradient>
    <linearGradient
       id="linearGradient1011045">
      <stop
         style="stop-color:#e05654;stop-opacity:1;"
         offset="0"
         id="stop1011043" />
    </linearGradient>
    <linearGradient
       id="linearGradient1011037">
      <stop
         style="stop-color:#e05654;stop-opacity:1;"
         offset="0"
         id="stop1011035" />
    </linearGradient>
    <linearGradient
       id="linearGradient1011012">
      <stop
         style="stop-color:#ffffff;stop-opacity:1;"
         offset="0"
         id="stop1011010" />
    </linearGradient>
    <linearGradient
       id="magenta">
      <stop
         style="stop-color:#e05654;stop-opacity:1;"
         offset="0"
         id="stop1007360" />
    </linearGradient>
    <linearGradient
       id="linearGradient938871">
      <stop
         style="stop-color:#0d4e87;stop-opacity:1"
         offset="0"
         id="stop938867" />
      <stop
         style="stop-color:#c5e5da;stop-opacity:0;"
         offset="1"
         id="stop938869" />
    </linearGradient>
    <linearGradient
       id="linearGradient909085">
      <stop
         style="stop-color:#000000;stop-opacity:1;"
         offset="0"
         id="stop909083" />
    </linearGradient>
    <linearGradient
       id="linearGradient909042">
      <stop
         style="stop-color:#000000;stop-opacity:1;"
         offset="0"
         id="stop909040" />
    </linearGradient>
    <linearGradient
       id="linearGradient858661">
      <stop
         style="stop-color:#ffffff;stop-opacity:1;"
         offset="0"
         id="stop858659" />
    </linearGradient>
    <linearGradient
       id="linearGradient840049">
      <stop
         style="stop-color:#ffffff;stop-opacity:1;"
         offset="0"
         id="stop840047" />
    </linearGradient>
    <linearGradient
       id="linearGradient586458">
      <stop
         style="stop-color:#ffffff;stop-opacity:1;"
         offset="0"
         id="stop586456" />
    </linearGradient>
    <linearGradient
       id="linearGradient576254">
      <stop
         style="stop-color:#87b0aa;stop-opacity:1;"
         offset="0"
         id="stop576252" />
    </linearGradient>
    <linearGradient
       id="linearGradient475305">
      <stop
         style="stop-color:#ffffff;stop-opacity:1;"
         offset="0"
         id="stop475303" />
    </linearGradient>
    <linearGradient
       id="linearGradient475259">
      <stop
         style="stop-color:#ffffff;stop-opacity:1;"
         offset="0"
         id="stop475257" />
    </linearGradient>
    <linearGradient
       id="linearGradient475213">
      <stop
         style="stop-color:#ffffff;stop-opacity:1;"
         offset="0"
         id="stop475211" />
    </linearGradient>
    <linearGradient
       id="linearGradient475167">
      <stop
         style="stop-color:#ffffff;stop-opacity:1;"
         offset="0"
         id="stop475165" />
    </linearGradient>
    <linearGradient
       id="linearGradient469770">
      <stop
         style="stop-color:#ffffff;stop-opacity:1;"
         offset="0"
         id="stop469768" />
    </linearGradient>
    <linearGradient
       id="linearGradient469686">
      <stop
         style="stop-color:#ffffff;stop-opacity:1;"
         offset="0"
         id="stop469684" />
    </linearGradient>
    <linearGradient
       id="linearGradient443579">
      <stop
         style="stop-color:#fff585;stop-opacity:0.89999998"
         offset="0"
         id="stop443575" />
      <stop
         style="stop-color:#fff585;stop-opacity:0"
         offset="1"
         id="stop443577" />
    </linearGradient>
    <linearGradient
       id="linearGradient420189">
      <stop
         style="stop-color:#a9d7d0;stop-opacity:1;"
         offset="0"
         id="stop420187" />
    </linearGradient>
    <linearGradient
       id="linearGradient420164">
      <stop
         style="stop-color:#a9d7d0;stop-opacity:1;"
         offset="0"
         id="stop420162" />
    </linearGradient>
    <linearGradient
       id="linearGradient389224">
      <stop
         style="stop-color:#000000;stop-opacity:1;"
         offset="0"
         id="stop389222" />
    </linearGradient>
    <linearGradient
       id="linearGradient376223">
      <stop
         style="stop-color:#ffffff;stop-opacity:1;"
         offset="0"
         id="stop376221" />
    </linearGradient>
    <linearGradient
       id="linearGradient373266">
      <stop
         style="stop-color:#000000;stop-opacity:1;"
         offset="0"
         id="stop373264" />
    </linearGradient>
    <linearGradient
       id="linearGradient372569">
      <stop
         style="stop-color:#000000;stop-opacity:1;"
         offset="0"
         id="stop372567" />
    </linearGradient>
    <linearGradient
       id="linearGradient372563">
      <stop
         style="stop-color:#000000;stop-opacity:1;"
         offset="0"
         id="stop372561" />
    </linearGradient>
    <linearGradient
       id="linearGradient271166">
      <stop
         style="stop-color:#3d5d58;stop-opacity:1;"
         offset="0"
         id="stop271164" />
    </linearGradient>
    <linearGradient
       id="linearGradient255961">
      <stop
         style="stop-color:#fff585;stop-opacity:1;"
         offset="0"
         id="stop255959" />
    </linearGradient>
    <linearGradient
       id="linearGradient239299">
      <stop
         style="stop-color:#0d4e87;stop-opacity:1;"
         offset="0"
         id="stop239297" />
    </linearGradient>
    <linearGradient
       id="linearGradient75053">
      <stop
         style="stop-color:#fff585;stop-opacity:1;"
         offset="0"
         id="stop75051" />
    </linearGradient>
    <linearGradient
       id="linearGradient75045">
      <stop
         style="stop-color:#9cd7cd;stop-opacity:1;"
         offset="0"
         id="stop75043" />
    </linearGradient>
    <linearGradient
       id="linearGradient75039">
      <stop
         style="stop-color:#fff585;stop-opacity:1;"
         offset="0"
         id="stop75037" />
    </linearGradient>
    <linearGradient
       id="teal-20">
      <stop
         style="stop-color:#c5e5da;stop-opacity:1;"
         offset="0"
         id="stop73023" />
    </linearGradient>
    <linearGradient
       id="teal-30">
      <stop
         style="stop-color:#9cd7cd;stop-opacity:1;"
         offset="0"
         id="stop73017" />
    </linearGradient>
    <linearGradient
       id="teal-50">
      <stop
         style="stop-color:#7ebfb4;stop-opacity:1;"
         offset="0"
         id="stop73011" />
    </linearGradient>
    <linearGradient
       id="night">
      <stop
         style="stop-color:#0d4e87;stop-opacity:1;"
         offset="0"
         id="stop72015" />
    </linearGradient>
    <linearGradient
       id="day">
      <stop
         style="stop-color:#fff585;stop-opacity:1;"
         offset="0"
         id="stop72009" />
    </linearGradient>
    <clipPath
       clipPathUnits="userSpaceOnUse"
       id="clipPath11949-2-7-5-3-8-9-3-4-7-4-5">
      <rect
         style="fill:#cccccc;fill-opacity:1;stroke-width:6;stroke-linecap:round;stroke-linejoin:round"
         id="rect11951-4-2-6-2-3-1-2-8-4-4-5"
         width="179.99994"
         height="179.99994"
         x="1670"
         y="420"
         ry="20" />
    </clipPath>
    <clipPath
       clipPathUnits="userSpaceOnUse"
       id="clipPath11961-2-9-9-9-4-7-6-0-7-8-0">
      <rect
         style="fill:#cccccc;fill-opacity:1;stroke-width:6;stroke-linecap:round;stroke-linejoin:round"
         id="rect11963-8-0-7-9-8-4-7-3-3-4-4"
         width="179.99994"
         height="179.99994"
         x="1670"
         y="420"
         ry="20" />
    </clipPath>
    <clipPath
       clipPathUnits="userSpaceOnUse"
       id="clipPath11957-53-9-0-7-7-6-72-8-9-2-8">
      <rect
         style="fill:#cccccc;fill-opacity:1;stroke-width:6;stroke-linecap:round;stroke-linejoin:round"
         id="rect11959-7-5-9-42-0-6-7-6-5-9-2"
         width="179.99994"
         height="179.99994"
         x="1670"
         y="420"
         ry="20" />
    </clipPath>
    <clipPath
       clipPathUnits="userSpaceOnUse"
       id="clipPath11949-2-7-5-3-8-9-3-4-4-6-9">
      <rect
         style="fill:#cccccc;fill-opacity:1;stroke-width:6;stroke-linecap:round;stroke-linejoin:round"
         id="rect11951-4-2-6-2-3-1-2-8-7-7-9"
         width="179.99994"
         height="179.99994"
         x="1670"
         y="420"
         ry="20" />
    </clipPath>
    <clipPath
       clipPathUnits="userSpaceOnUse"
       id="clipPath11961-2-9-9-4-77-7-3-3-3-3-3-9-3-6">
      <rect
         style="fill:#cccccc;fill-opacity:1;stroke-width:6;stroke-linecap:round;stroke-linejoin:round"
         id="rect11963-8-0-7-8-4-9-1-3-9-8-6-18-78-8"
         width="179.99994"
         height="179.99994"
         x="1670"
         y="420"
         ry="20" />
    </clipPath>
    <clipPath
       clipPathUnits="userSpaceOnUse"
       id="clipPath11957-53-9-0-3-18-0-7-3-9-6-3-17-2-5">
      <rect
         style="fill:#cccccc;fill-opacity:1;stroke-width:6;stroke-linecap:round;stroke-linejoin:round"
         id="rect11959-7-5-9-3-35-9-3-4-1-5-9-55-0-3"
         width="179.99994"
         height="179.99994"
         x="1670"
         y="420"
         ry="20" />
    </clipPath>
    <clipPath
       clipPathUnits="userSpaceOnUse"
       id="clipPath11953-1-9-7-5-8-4-6-6-1-7-0-7-4-6">
      <rect
         style="fill:#cccccc;fill-opacity:1;stroke-width:6;stroke-linecap:round;stroke-linejoin:round"
         id="rect11955-1-7-5-2-03-2-3-3-7-3-4-1-5-8"
         width="179.99994"
         height="179.99994"
         x="1670"
         y="420"
         ry="20" />
    </clipPath>
    <clipPath
       clipPathUnits="userSpaceOnUse"
       id="clipPath11949-2-7-5-8-9-5-6-58-1-9-9-5-5-6">
      <rect
         style="fill:#cccccc;fill-opacity:1;stroke-width:6;stroke-linecap:round;stroke-linejoin:round"
         id="rect11951-4-2-6-6-1-7-8-1-6-1-7-3-5-8"
         width="179.99994"
         height="179.99994"
         x="1670"
         y="420"
         ry="20" />
    </clipPath>
    <clipPath
       clipPathUnits="userSpaceOnUse"
       id="clipPath11961-2-9-9-4-77-7-3-3-3-3-3-9-9-8-1">
      <rect
         style="fill:#cccccc;fill-opacity:1;stroke-width:6;stroke-linecap:round;stroke-linejoin:round"
         id="rect11963-8-0-7-8-4-9-1-3-9-8-6-18-7-2-4"
         width="179.99994"
         height="179.99994"
         x="1670"
         y="420"
         ry="20" />
    </clipPath>
    <clipPath
       clipPathUnits="userSpaceOnUse"
       id="clipPath11957-53-9-0-3-18-0-7-3-9-6-3-17-9-0-6">
      <rect
         style="fill:#cccccc;fill-opacity:1;stroke-width:6;stroke-linecap:round;stroke-linejoin:round"
         id="rect11959-7-5-9-3-35-9-3-4-1-5-9-55-6-8-4"
         width="179.99994"
         height="179.99994"
         x="1670"
         y="420"
         ry="20" />
    </clipPath>
    <clipPath
       clipPathUnits="userSpaceOnUse"
       id="clipPath11953-1-9-7-5-8-4-6-6-1-7-0-7-5-1-7">
      <rect
         style="fill:#cccccc;fill-opacity:1;stroke-width:6;stroke-linecap:round;stroke-linejoin:round"
         id="rect11955-1-7-5-2-03-2-3-3-7-3-4-1-4-1-5"
         width="179.99994"
         height="179.99994"
         x="1670"
         y="420"
         ry="20" />
    </clipPath>
    <clipPath
       clipPathUnits="userSpaceOnUse"
       id="clipPath11949-2-7-5-8-9-5-6-58-1-9-9-5-6-9-1">
      <rect
         style="fill:#cccccc;fill-opacity:1;stroke-width:6;stroke-linecap:round;stroke-linejoin:round"
         id="rect11951-4-2-6-6-1-7-8-1-6-1-7-3-1-4-0"
         width="179.99994"
         height="179.99994"
         x="1670"
         y="420"
         ry="20" />
    </clipPath>
    <clipPath
       clipPathUnits="userSpaceOnUse"
       id="clipPath11961-2-9-9-4-77-7-3-3-3-3-3-9-1-4-9">
      <rect
         style="fill:#cccccc;fill-opacity:1;stroke-width:6;stroke-linecap:round;stroke-linejoin:round"
         id="rect11963-8-0-7-8-4-9-1-3-9-8-6-18-3-5-1"
         width="179.99994"
         height="179.99994"
         x="1670"
         y="420"
         ry="20" />
    </clipPath>
    <clipPath
       clipPathUnits="userSpaceOnUse"
       id="clipPath11957-53-9-0-3-18-0-7-3-9-6-3-17-43-3-5">
      <rect
         style="fill:#cccccc;fill-opacity:1;stroke-width:6;stroke-linecap:round;stroke-linejoin:round"
         id="rect11959-7-5-9-3-35-9-3-4-1-5-9-55-33-0-0"
         width="179.99994"
         height="179.99994"
         x="1670"
         y="420"
         ry="20" />
    </clipPath>
    <clipPath
       clipPathUnits="userSpaceOnUse"
       id="clipPath11953-1-9-7-5-8-4-6-6-1-7-0-7-64-8-8">
      <rect
         style="fill:#cccccc;fill-opacity:1;stroke-width:6;stroke-linecap:round;stroke-linejoin:round"
         id="rect11955-1-7-5-2-03-2-3-3-7-3-4-1-79-7-8"
         width="179.99994"
         height="179.99994"
         x="1670"
         y="420"
         ry="20" />
    </clipPath>
    <clipPath
       clipPathUnits="userSpaceOnUse"
       id="clipPath11949-2-7-5-8-9-5-6-58-1-9-9-5-9-7-8">
      <rect
         style="fill:#cccccc;fill-opacity:1;stroke-width:6;stroke-linecap:round;stroke-linejoin:round"
         id="rect11951-4-2-6-6-1-7-8-1-6-1-7-3-15-1-2"
         width="179.99994"
         height="179.99994"
         x="1670"
         y="420"
         ry="20" />
    </clipPath>
    <clipPath
       clipPathUnits="userSpaceOnUse"
       id="clipPath11961-2-9-9-4-77-7-3-3-3-3-3-9-9-0-1-9">
      <rect
         style="fill:#cccccc;fill-opacity:1;stroke-width:6;stroke-linecap:round;stroke-linejoin:round"
         id="rect11963-8-0-7-8-4-9-1-3-9-8-6-18-7-5-9-5"
         width="179.99994"
         height="179.99994"
         x="1670"
         y="420"
         ry="20" />
    </clipPath>
    <clipPath
       clipPathUnits="userSpaceOnUse"
       id="clipPath11957-53-9-0-3-18-0-7-3-9-6-3-17-9-77-9-7">
      <rect
         style="fill:#cccccc;fill-opacity:1;stroke-width:6;stroke-linecap:round;stroke-linejoin:round"
         id="rect11959-7-5-9-3-35-9-3-4-1-5-9-55-6-5-4-2"
         width="179.99994"
         height="179.99994"
         x="1670"
         y="420"
         ry="20" />
    </clipPath>
    <clipPath
       clipPathUnits="userSpaceOnUse"
       id="clipPath11953-1-9-7-5-8-4-6-6-1-7-0-7-5-56-1-5">
      <rect
         style="fill:#cccccc;fill-opacity:1;stroke-width:6;stroke-linecap:round;stroke-linejoin:round"
         id="rect11955-1-7-5-2-03-2-3-3-7-3-4-1-4-86-6-3"
         width="179.99994"
         height="179.99994"
         x="1670"
         y="420"
         ry="20" />
    </clipPath>
    <clipPath
       clipPathUnits="userSpaceOnUse"
       id="clipPath11949-2-7-5-8-9-5-6-58-1-9-9-5-6-7-9-1">
      <rect
         style="fill:#cccccc;fill-opacity:1;stroke-width:6;stroke-linecap:round;stroke-linejoin:round"
         id="rect11951-4-2-6-6-1-7-8-1-6-1-7-3-1-92-3-1"
         width="179.99994"
         height="179.99994"
         x="1670"
         y="420"
         ry="20" />
    </clipPath>
    <clipPath
       clipPathUnits="userSpaceOnUse"
       id="clipPath11961-2-9-96-9-2-5-2-1-8-0-8">
      <rect
         style="fill:#cccccc;fill-opacity:1;stroke-width:6;stroke-linecap:round;stroke-linejoin:round"
         id="rect11963-8-0-48-5-6-2-3-6-4-6-42"
         width="179.99994"
         height="179.99994"
         x="1670"
         y="420"
         ry="20" />
    </clipPath>
    <clipPath
       clipPathUnits="userSpaceOnUse"
       id="clipPath11949-2-7-9-4-6-6-9-7-5-7-6">
      <rect
         style="fill:#cccccc;fill-opacity:1;stroke-width:6;stroke-linecap:round;stroke-linejoin:round"
         id="rect11951-4-2-2-9-5-7-7-4-8-8-0"
         width="179.99994"
         height="179.99994"
         x="1670"
         y="420"
         ry="20" />
    </clipPath>
    <clipPath
       clipPathUnits="userSpaceOnUse"
       id="clipPath11961-2-9-96-9-2-5-2-1-8-8-0-4">
      <rect
         style="fill:#cccccc;fill-opacity:1;stroke-width:6;stroke-linecap:round;stroke-linejoin:round"
         id="rect11963-8-0-48-5-6-2-3-6-4-27-4-9"
         width="179.99994"
         height="179.99994"
         x="1670"
         y="420"
         ry="20" />
    </clipPath>
    <clipPath
       clipPathUnits="userSpaceOnUse"
       id="clipPath11949-2-7-9-4-6-6-9-7-5-3-0-7">
      <rect
         style="fill:#cccccc;fill-opacity:1;stroke-width:6;stroke-linecap:round;stroke-linejoin:round"
         id="rect11951-4-2-2-9-5-7-7-4-8-23-5-8"
         width="179.99994"
         height="179.99994"
         x="1670"
         y="420"
         ry="20" />
    </clipPath>
    <linearGradient
       xlink:href="#night"
       id="linearGradient70826"
       gradientUnits="userSpaceOnUse"
       x1="1670"
       y1="509.99997"
       x2="1760"
       y2="509.99997" />
    <linearGradient
       xlink:href="#night"
       id="linearGradient70828"
       gradientUnits="userSpaceOnUse"
       x1="1670"
       y1="555"
       x2="1849.9999"
       y2="555" />
    <linearGradient
       xlink:href="#night"
       id="linearGradient70830"
       gradientUnits="userSpaceOnUse"
       x1="1670"
       y1="465"
       x2="1849.9999"
       y2="465" />
    <linearGradient
       xlink:href="#night"
       id="linearGradient70832"
       gradientUnits="userSpaceOnUse"
       x1="1670"
       y1="509.99997"
       x2="1760"
       y2="509.99997" />
    <linearGradient
       xlink:href="#night"
       id="linearGradient70834"
       gradientUnits="userSpaceOnUse"
       x1="1670"
       y1="555"
       x2="1849.9999"
       y2="555" />
    <linearGradient
       xlink:href="#night"
       id="linearGradient70836"
       gradientUnits="userSpaceOnUse"
       x1="1670"
       y1="465"
       x2="1849.9999"
       y2="465" />
    <linearGradient
       xlink:href="#night"
       id="linearGradient70838"
       gradientUnits="userSpaceOnUse"
       x1="1760"
       y1="509.99997"
       x2="1849.9999"
       y2="509.99997" />
    <linearGradient
       xlink:href="#night"
       id="linearGradient70840"
       gradientUnits="userSpaceOnUse"
       x1="1670"
       y1="509.99997"
       x2="1760"
       y2="509.99997" />
    <linearGradient
       xlink:href="#night"
       id="linearGradient70842"
       gradientUnits="userSpaceOnUse"
       x1="1670"
       y1="555"
       x2="1849.9999"
       y2="555" />
    <linearGradient
       xlink:href="#night"
       id="linearGradient70844"
       gradientUnits="userSpaceOnUse"
       x1="1670"
       y1="465"
       x2="1849.9999"
       y2="465" />
    <linearGradient
       xlink:href="#night"
       id="linearGradient70846"
       gradientUnits="userSpaceOnUse"
       x1="1760"
       y1="509.99997"
       x2="1849.9999"
       y2="509.99997" />
    <linearGradient
       xlink:href="#night"
       id="linearGradient70848"
       gradientUnits="userSpaceOnUse"
       x1="1670"
       y1="509.99997"
       x2="1760"
       y2="509.99997" />
    <linearGradient
       xlink:href="#night"
       id="linearGradient70850"
       gradientUnits="userSpaceOnUse"
       x1="1670"
       y1="555"
       x2="1849.9999"
       y2="555" />
    <linearGradient
       xlink:href="#night"
       id="linearGradient70852"
       gradientUnits="userSpaceOnUse"
       x1="1670"
       y1="465"
       x2="1849.9999"
       y2="465" />
    <linearGradient
       xlink:href="#night"
       id="linearGradient70854"
       gradientUnits="userSpaceOnUse"
       x1="1760"
       y1="509.99997"
       x2="1849.9999"
       y2="509.99997" />
    <linearGradient
       xlink:href="#night"
       id="linearGradient70856"
       gradientUnits="userSpaceOnUse"
       x1="1670"
       y1="509.99997"
       x2="1760"
       y2="509.99997" />
    <linearGradient
       xlink:href="#night"
       id="linearGradient70858"
       gradientUnits="userSpaceOnUse"
       x1="1670"
       y1="555"
       x2="1849.9999"
       y2="555" />
    <linearGradient
       xlink:href="#night"
       id="linearGradient70860"
       gradientUnits="userSpaceOnUse"
       x1="1670"
       y1="465"
       x2="1849.9999"
       y2="465" />
    <linearGradient
       xlink:href="#night"
       id="linearGradient70862"
       gradientUnits="userSpaceOnUse"
       x1="1760"
       y1="509.99997"
       x2="1849.9999"
       y2="509.99997" />
    <linearGradient
       xlink:href="#night"
       id="linearGradient70864"
       gradientUnits="userSpaceOnUse"
       x1="1670"
       y1="509.99997"
       x2="1760"
       y2="509.99997" />
    <linearGradient
       xlink:href="#day"
       id="linearGradient70866"
       gradientUnits="userSpaceOnUse"
       x1="1670"
       y1="555"
       x2="1849.9999"
       y2="555" />
    <linearGradient
       xlink:href="#day"
       id="linearGradient70868"
       gradientUnits="userSpaceOnUse"
       x1="1670"
       y1="509.99997"
       x2="1760"
       y2="509.99997" />
    <linearGradient
       xlink:href="#night"
       id="linearGradient70870"
       gradientUnits="userSpaceOnUse"
       x1="1670"
       y1="555"
       x2="1849.9999"
       y2="555" />
    <linearGradient
       xlink:href="#night"
       id="linearGradient70872"
       gradientUnits="userSpaceOnUse"
       x1="1670"
       y1="509.99997"
       x2="1760"
       y2="509.99997" />
    <linearGradient
       xlink:href="#teal-20"
       id="linearGradient71042"
       gradientUnits="userSpaceOnUse"
       x1="0"
       y1="540"
       x2="1920"
       y2="540"
       gradientTransform="matrix(0.2625641,0,0,0.46678062,1.0830769e-5,-9.8461538e-6)" />
  </defs>
  <g
     id="layer25"
     style="display:inline">
    <g
       id="g87929">
      <rect
         style="display:inline;fill:url(#linearGradient71042);fill-opacity:1;stroke-width:2.10052;stroke-linecap:round;stroke-linejoin:round"
         id="rect410268-9"
         width="512"
         height="512"
         x="0"
         y="0"
         ry="39.384617" />
      <g
         id="g410334-3"
         transform="translate(-2323.9999,75.999964)"
         style="display:inline">
        <g
           id="g410272-9"
           transform="matrix(0,0.66666689,-0.66666689,0,2920.0001,-993.33382)"
           style="display:inline">
          <path
             style="fill:url(#linearGradient70826);fill-opacity:1;stroke:none;stroke-width:5;stroke-linecap:round;stroke-linejoin:miter;stroke-miterlimit:4;stroke-dasharray:none;stroke-opacity:1"
             d="m 1670,420 90,90 -90,90 z"
             id="path410270-8"
             clip-path="url(#clipPath11949-2-7-5-3-8-9-3-4-7-4-5)" />
        </g>
        <g
           id="g410280-6"
           transform="matrix(0,-0.66666689,-0.66666689,0,2920.0001,1233.3337)"
           style="display:inline">
          <path
             style="fill:url(#linearGradient70828);fill-opacity:1;stroke:none;stroke-width:5;stroke-linecap:round;stroke-linejoin:miter;stroke-miterlimit:4;stroke-dasharray:none;stroke-opacity:1"
             d="m 1670,600 90,-90 90,90 z"
             id="path410274-8"
             clip-path="url(#clipPath11961-2-9-9-9-4-7-6-0-7-8-0)" />
          <path
             style="fill:url(#linearGradient70830);fill-opacity:1;stroke:none;stroke-width:5;stroke-linecap:round;stroke-linejoin:miter;stroke-miterlimit:4;stroke-dasharray:none;stroke-opacity:1"
             d="m 1670,420 90,90 90,-90 z"
             id="path410276-8"
             clip-path="url(#clipPath11957-53-9-0-7-7-6-72-8-9-2-8)" />
          <path
             style="fill:url(#linearGradient70832);fill-opacity:1;stroke:none;stroke-width:5;stroke-linecap:round;stroke-linejoin:miter;stroke-miterlimit:4;stroke-dasharray:none;stroke-opacity:1"
             d="m 1670,420 90,90 -90,90 z"
             id="path410278-2"
             clip-path="url(#clipPath11949-2-7-5-3-8-9-3-4-4-6-9)" />
        </g>
        <g
           id="g410290-6"
           transform="matrix(3.2266762,0,0,3.2266762,3233.4911,-1646.803)"
           style="display:inline">
          <path
             style="display:inline;fill:url(#linearGradient70834);fill-opacity:1;stroke:none;stroke-width:5;stroke-linecap:round;stroke-linejoin:miter;stroke-miterlimit:4;stroke-dasharray:none;stroke-opacity:1"
             d="m 1670,600 90,-90 90,90 z"
             id="path410282-0"
             clip-path="url(#clipPath11961-2-9-9-4-77-7-3-3-3-3-3-9-3-6)"
             transform="matrix(0.20661103,0,0,0.20661103,-528.97306,460.78467)" />
          <path
             style="display:inline;fill:url(#linearGradient70836);fill-opacity:1;stroke:none;stroke-width:5;stroke-linecap:round;stroke-linejoin:miter;stroke-miterlimit:4;stroke-dasharray:none;stroke-opacity:1"
             d="m 1670,420 90,90 90,-90 z"
             id="path410284-2"
             clip-path="url(#clipPath11957-53-9-0-3-18-0-7-3-9-6-3-17-2-5)"
             transform="matrix(0.20661103,0,0,0.20661103,-528.97306,460.78467)" />
          <path
             style="display:inline;fill:url(#linearGradient70838);fill-opacity:1;stroke:none;stroke-width:5;stroke-linecap:round;stroke-linejoin:miter;stroke-miterlimit:4;stroke-dasharray:none;stroke-opacity:1"
             d="m 1850,420 -90,90 90,90 z"
             id="path410286-3"
             clip-path="url(#clipPath11953-1-9-7-5-8-4-6-6-1-7-0-7-4-6)"
             transform="matrix(0.20661103,0,0,0.20661103,-528.97306,460.78467)" />
          <path
             style="display:inline;fill:url(#linearGradient70840);fill-opacity:1;stroke:none;stroke-width:5;stroke-linecap:round;stroke-linejoin:miter;stroke-miterlimit:4;stroke-dasharray:none;stroke-opacity:1"
             d="m 1670,420 90,90 -90,90 z"
             id="path410288-3"
             clip-path="url(#clipPath11949-2-7-5-8-9-5-6-58-1-9-9-5-5-6)"
             transform="matrix(0.20661103,0,0,0.20661103,-528.97306,460.78467)" />
        </g>
        <g
           id="g410300-8"
           transform="matrix(3.2266762,0,0,3.2266762,2993.9516,-1646.8029)"
           style="display:inline">
          <path
             style="display:inline;fill:url(#linearGradient70842);fill-opacity:1;stroke:none;stroke-width:5;stroke-linecap:round;stroke-linejoin:miter;stroke-miterlimit:4;stroke-dasharray:none;stroke-opacity:1"
             d="m 1670,600 90,-90 90,90 z"
             id="path410292-1"
             clip-path="url(#clipPath11961-2-9-9-4-77-7-3-3-3-3-3-9-9-8-1)"
             transform="matrix(0.20661103,0,0,0.20661103,-528.97306,460.78467)" />
          <path
             style="display:inline;fill:url(#linearGradient70844);fill-opacity:1;stroke:none;stroke-width:5;stroke-linecap:round;stroke-linejoin:miter;stroke-miterlimit:4;stroke-dasharray:none;stroke-opacity:1"
             d="m 1670,420 90,90 90,-90 z"
             id="path410294-6"
             clip-path="url(#clipPath11957-53-9-0-3-18-0-7-3-9-6-3-17-9-0-6)"
             transform="matrix(0.20661103,0,0,0.20661103,-528.97306,460.78467)" />
          <path
             style="display:inline;fill:url(#linearGradient70846);fill-opacity:1;stroke:none;stroke-width:5;stroke-linecap:round;stroke-linejoin:miter;stroke-miterlimit:4;stroke-dasharray:none;stroke-opacity:1"
             d="m 1850,420 -90,90 90,90 z"
             id="path410296-2"
             clip-path="url(#clipPath11953-1-9-7-5-8-4-6-6-1-7-0-7-5-1-7)"
             transform="matrix(0.20661103,0,0,0.20661103,-528.97306,460.78467)" />
          <path
             style="display:inline;fill:url(#linearGradient70848);fill-opacity:1;stroke:none;stroke-width:5;stroke-linecap:round;stroke-linejoin:miter;stroke-miterlimit:4;stroke-dasharray:none;stroke-opacity:1"
             d="m 1670,420 90,90 -90,90 z"
             id="path410298-1"
             clip-path="url(#clipPath11949-2-7-5-8-9-5-6-58-1-9-9-5-6-9-1)"
             transform="matrix(0.20661103,0,0,0.20661103,-528.97306,460.78467)" />
        </g>
        <g
           id="g410310-9"
           transform="matrix(3.2266762,0,0,3.2266762,3233.4911,-1526.803)"
           style="display:inline">
          <path
             style="display:inline;fill:url(#linearGradient70850);fill-opacity:1;stroke:none;stroke-width:5;stroke-linecap:round;stroke-linejoin:miter;stroke-miterlimit:4;stroke-dasharray:none;stroke-opacity:1"
             d="m 1670,600 90,-90 90,90 z"
             id="path410302-0"
             clip-path="url(#clipPath11961-2-9-9-4-77-7-3-3-3-3-3-9-1-4-9)"
             transform="matrix(0.20661103,0,0,0.20661103,-528.97306,460.78467)" />
          <path
             style="display:inline;fill:url(#linearGradient70852);fill-opacity:1;stroke:none;stroke-width:5;stroke-linecap:round;stroke-linejoin:miter;stroke-miterlimit:4;stroke-dasharray:none;stroke-opacity:1"
             d="m 1670,420 90,90 90,-90 z"
             id="path410304-9"
             clip-path="url(#clipPath11957-53-9-0-3-18-0-7-3-9-6-3-17-43-3-5)"
             transform="matrix(0.20661103,0,0,0.20661103,-528.97306,460.78467)" />
          <path
             style="display:inline;fill:url(#linearGradient70854);fill-opacity:1;stroke:none;stroke-width:5;stroke-linecap:round;stroke-linejoin:miter;stroke-miterlimit:4;stroke-dasharray:none;stroke-opacity:1"
             d="m 1850,420 -90,90 90,90 z"
             id="path410306-9"
             clip-path="url(#clipPath11953-1-9-7-5-8-4-6-6-1-7-0-7-64-8-8)"
             transform="matrix(0.20661103,0,0,0.20661103,-528.97306,460.78467)" />
          <path
             style="display:inline;fill:url(#linearGradient70856);fill-opacity:1;stroke:none;stroke-width:5;stroke-linecap:round;stroke-linejoin:miter;stroke-miterlimit:4;stroke-dasharray:none;stroke-opacity:1"
             d="m 1670,420 90,90 -90,90 z"
             id="path410308-8"
             clip-path="url(#clipPath11949-2-7-5-8-9-5-6-58-1-9-9-5-9-7-8)"
             transform="matrix(0.20661103,0,0,0.20661103,-528.97306,460.78467)" />
        </g>
        <g
           id="g410320-1"
           transform="matrix(3.2266762,0,0,3.2266762,2993.9516,-1526.8029)"
           style="display:inline">
          <path
             style="display:inline;fill:url(#linearGradient70858);fill-opacity:1;stroke:none;stroke-width:5;stroke-linecap:round;stroke-linejoin:miter;stroke-miterlimit:4;stroke-dasharray:none;stroke-opacity:1"
             d="m 1670,600 90,-90 90,90 z"
             id="path410312-2"
             clip-path="url(#clipPath11961-2-9-9-4-77-7-3-3-3-3-3-9-9-0-1-9)"
             transform="matrix(0.20661103,0,0,0.20661103,-528.97306,460.78467)" />
          <path
             style="display:inline;fill:url(#linearGradient70860);fill-opacity:1;stroke:none;stroke-width:5;stroke-linecap:round;stroke-linejoin:miter;stroke-miterlimit:4;stroke-dasharray:none;stroke-opacity:1"
             d="m 1670,420 90,90 90,-90 z"
             id="path410314-5"
             clip-path="url(#clipPath11957-53-9-0-3-18-0-7-3-9-6-3-17-9-77-9-7)"
             transform="matrix(0.20661103,0,0,0.20661103,-528.97306,460.78467)" />
          <path
             style="display:inline;fill:url(#linearGradient70862);fill-opacity:1;stroke:none;stroke-width:5;stroke-linecap:round;stroke-linejoin:miter;stroke-miterlimit:4;stroke-dasharray:none;stroke-opacity:1"
             d="m 1850,420 -90,90 90,90 z"
             id="path410316-5"
             clip-path="url(#clipPath11953-1-9-7-5-8-4-6-6-1-7-0-7-5-56-1-5)"
             transform="matrix(0.20661103,0,0,0.20661103,-528.97306,460.78467)" />
          <path
             style="display:inline;fill:url(#linearGradient70864);fill-opacity:1;stroke:none;stroke-width:5;stroke-linecap:round;stroke-linejoin:miter;stroke-miterlimit:4;stroke-dasharray:none;stroke-opacity:1"
             d="m 1670,420 90,90 -90,90 z"
             id="path410318-3"
             clip-path="url(#clipPath11949-2-7-5-8-9-5-6-58-1-9-9-5-6-7-9-1)"
             transform="matrix(0.20661103,0,0,0.20661103,-528.97306,460.78467)" />
        </g>
        <g
           id="g410326-5"
           transform="matrix(3.2266762,0,0,-3.2266762,-302.14475,-794.50967)">
          <path
             style="display:inline;fill:url(#linearGradient70866);fill-opacity:1;stroke:none;stroke-width:5;stroke-linecap:round;stroke-linejoin:miter;stroke-miterlimit:4;stroke-dasharray:none;stroke-opacity:1"
             d="m 1670,600 90,-90 90,90 z"
             id="path410322-7"
             clip-path="url(#clipPath11961-2-9-96-9-2-5-2-1-8-0-8)"
             transform="matrix(-0.20661103,0,0,-0.20661103,1219.6694,-159.45496)" />
          <path
             style="display:inline;fill:url(#linearGradient70868);fill-opacity:1;stroke:none;stroke-width:5;stroke-linecap:round;stroke-linejoin:miter;stroke-miterlimit:4;stroke-dasharray:none;stroke-opacity:1"
             d="m 1670,420 90,90 -90,90 z"
             id="path410324-8"
             clip-path="url(#clipPath11949-2-7-9-4-6-6-9-7-5-7-6)"
             transform="matrix(-0.20661103,0,0,-0.20661103,1219.6694,-159.45496)" />
        </g>
        <g
           id="g410332-0"
           transform="matrix(-3.2266762,0,0,-3.2266762,5462.1445,-794.50967)"
           style="display:inline">
          <path
             style="display:inline;fill:url(#linearGradient70870);fill-opacity:1;stroke:none;stroke-width:5;stroke-linecap:round;stroke-linejoin:miter;stroke-miterlimit:4;stroke-dasharray:none;stroke-opacity:1"
             d="m 1670,600 90,-90 90,90 z"
             id="path410328-0"
             clip-path="url(#clipPath11961-2-9-96-9-2-5-2-1-8-8-0-4)"
             transform="matrix(-0.20661103,0,0,-0.20661103,1219.6694,-159.45496)" />
          <path
             style="display:inline;fill:url(#linearGradient70872);fill-opacity:1;stroke:none;stroke-width:5;stroke-linecap:round;stroke-linejoin:miter;stroke-miterlimit:4;stroke-dasharray:none;stroke-opacity:1"
             d="m 1670,420 90,90 -90,90 z"
             id="path410330-9"
             clip-path="url(#clipPath11949-2-7-9-4-6-6-9-7-5-3-0-7)"
             transform="matrix(-0.20661103,0,0,-0.20661103,1219.6694,-159.45496)" />
        </g>
      </g>
    </g>
  </g>
</svg>
