<?xml version="1.0" encoding="UTF-8" standalone="no"?>
<!-- Created with Inkscape (http://www.inkscape.org/) -->

<svg
   width="720"
   height="366"
   viewBox="0 0 720 366"
   version="1.1"
   id="svg5"
   xmlns:xlink="http://www.w3.org/1999/xlink"
   xmlns="http://www.w3.org/2000/svg"
   xmlns:svg="http://www.w3.org/2000/svg">
  <defs
     id="defs2">
    <linearGradient
       id="linearGradient156748">
      <stop
         style="stop-color:#9affce;stop-opacity:0;"
         offset="0"
         id="stop156744" />
      <stop
         style="stop-color:#00c69c;stop-opacity:1;"
         offset="1"
         id="stop156746" />
    </linearGradient>
    <linearGradient
       id="linearGradient16001">
      <stop
         style="stop-color:#fff585;stop-opacity:1;"
         offset="0"
         id="stop15999" />
    </linearGradient>
    <linearGradient
       id="linearGradient15910">
      <stop
         style="stop-color:#000000;stop-opacity:1;"
         offset="0"
         id="stop15908" />
    </linearGradient>
    <linearGradient
       id="linearGradient10764">
      <stop
         style="stop-color:#ffffff;stop-opacity:1;"
         offset="0"
         id="stop10762" />
    </linearGradient>
    <linearGradient
       id="linearGradient10666">
      <stop
         style="stop-color:#000000;stop-opacity:1;"
         offset="0"
         id="stop10664" />
    </linearGradient>
    <linearGradient
       id="linearGradient126978">
      <stop
         style="stop-color:#ffe23e;stop-opacity:1;"
         offset="0"
         id="stop126976" />
    </linearGradient>
    <linearGradient
       id="day-flower">
      <stop
         style="stop-color:#ffe23e;stop-opacity:1;"
         offset="0"
         id="stop126910" />
    </linearGradient>
    <linearGradient
       id="linearGradient117979">
      <stop
         style="stop-color:#fff585;stop-opacity:1;"
         offset="0"
         id="stop117977" />
    </linearGradient>
    <linearGradient
       id="linearGradient113394">
      <stop
         style="stop-color:#ffffff;stop-opacity:1;"
         offset="0"
         id="stop113392" />
    </linearGradient>
    <linearGradient
       id="linearGradient108849">
      <stop
         style="stop-color:#ffffff;stop-opacity:1;"
         offset="0"
         id="stop108847" />
    </linearGradient>
    <linearGradient
       id="linearGradient108614">
      <stop
         style="stop-color:#ffffff;stop-opacity:1;"
         offset="0"
         id="stop108612" />
    </linearGradient>
    <linearGradient
       id="linearGradient1103603">
      <stop
         style="stop-color:#1a7374;stop-opacity:1;"
         offset="0"
         id="stop1103601" />
    </linearGradient>
    <linearGradient
       id="linearGradient1088623">
      <stop
         style="stop-color:#0d4e87;stop-opacity:1;"
         offset="0"
         id="stop1088621" />
    </linearGradient>
    <linearGradient
       id="linearGradient1008028">
      <stop
         style="stop-color:#1a7374;stop-opacity:1;"
         offset="0"
         id="stop1008026" />
    </linearGradient>
    <linearGradient
       id="linearGradient985290">
      <stop
         style="stop-color:#ffffff;stop-opacity:1"
         offset="0"
         id="stop985286" />
      <stop
         style="stop-color:#ffffff;stop-opacity:0"
         offset="1"
         id="stop985288" />
    </linearGradient>
    <linearGradient
       id="linearGradient927065">
      <stop
         style="stop-color:#1a7374;stop-opacity:1;"
         offset="0"
         id="stop927063" />
    </linearGradient>
    <linearGradient
       id="linearGradient758633">
      <stop
         style="stop-color:#12762a;stop-opacity:1;"
         offset="0"
         id="stop758631" />
    </linearGradient>
    <linearGradient
       id="linearGradient744385">
      <stop
         style="stop-color:#000000;stop-opacity:1;"
         offset="0"
         id="stop744383" />
    </linearGradient>
    <linearGradient
       id="linearGradient667915">
      <stop
         style="stop-color:#ffffff;stop-opacity:1;"
         offset="0"
         id="stop667913" />
    </linearGradient>
    <linearGradient
       id="linearGradient667873">
      <stop
         style="stop-color:#000000;stop-opacity:1;"
         offset="0"
         id="stop667871" />
    </linearGradient>
    <linearGradient
       id="linearGradient578021">
      <stop
         style="stop-color:#000000;stop-opacity:1;"
         offset="0"
         id="stop578019" />
    </linearGradient>
    <linearGradient
       id="linearGradient540101">
      <stop
         style="stop-color:#000000;stop-opacity:1;"
         offset="0"
         id="stop540099" />
    </linearGradient>
    <linearGradient
       id="teal-10">
      <stop
         style="stop-color:#edfbff;stop-opacity:1;"
         offset="0"
         id="stop499112" />
    </linearGradient>
    <linearGradient
       id="linearGradient499072">
      <stop
         style="stop-color:#edfbff;stop-opacity:1;"
         offset="0"
         id="stop499070" />
    </linearGradient>
    <linearGradient
       id="linearGradient481348">
      <stop
         style="stop-color:#edfbff;stop-opacity:1;"
         offset="0"
         id="stop481346" />
    </linearGradient>
    <linearGradient
       id="linearGradient473279">
      <stop
         style="stop-color:#ffffff;stop-opacity:1;"
         offset="0"
         id="stop473277" />
    </linearGradient>
    <linearGradient
       id="linearGradient469064">
      <stop
         style="stop-color:#000000;stop-opacity:1;"
         offset="0"
         id="stop469062" />
    </linearGradient>
    <linearGradient
       id="linearGradient468971">
      <stop
         style="stop-color:#ffffff;stop-opacity:1;"
         offset="0"
         id="stop468969" />
    </linearGradient>
    <linearGradient
       id="linearGradient460556">
      <stop
         style="stop-color:#000000;stop-opacity:1;"
         offset="0"
         id="stop460554" />
    </linearGradient>
    <linearGradient
       id="linearGradient370307">
      <stop
         style="stop-color:#ffffff;stop-opacity:1;"
         offset="0"
         id="stop370305" />
    </linearGradient>
    <linearGradient
       id="linearGradient345040">
      <stop
         style="stop-color:#ffffff;stop-opacity:1;"
         offset="0"
         id="stop345038" />
    </linearGradient>
    <linearGradient
       id="linearGradient345034">
      <stop
         style="stop-color:#ff0000;stop-opacity:1;"
         offset="0"
         id="stop345032" />
    </linearGradient>
    <linearGradient
       id="linearGradient278281">
      <stop
         style="stop-color:#1a7374;stop-opacity:1;"
         offset="0"
         id="stop278279" />
    </linearGradient>
    <linearGradient
       id="emerald-dark">
      <stop
         style="stop-color:#1a7374;stop-opacity:1;"
         offset="0"
         id="stop274044" />
    </linearGradient>
    <linearGradient
       id="linearGradient219091">
      <stop
         style="stop-color:#ffd5d5;stop-opacity:1;"
         offset="0"
         id="stop219089" />
    </linearGradient>
    <linearGradient
       id="linearGradient218356">
      <stop
         style="stop-color:#ffd5d5;stop-opacity:1;"
         offset="0"
         id="stop218354" />
    </linearGradient>
    <linearGradient
       id="linearGradient188758">
      <stop
         style="stop-color:#cc776e;stop-opacity:1;"
         offset="0"
         id="stop188756" />
    </linearGradient>
    <linearGradient
       id="linearGradient147405">
      <stop
         style="stop-color:#f79a91;stop-opacity:1;"
         offset="0"
         id="stop147403" />
    </linearGradient>
    <linearGradient
       id="linearGradient68199">
      <stop
         style="stop-color:#ffffff;stop-opacity:1;"
         offset="0"
         id="stop68197" />
    </linearGradient>
    <linearGradient
       id="linearGradient43272">
      <stop
         style="stop-color:#fff585;stop-opacity:1;"
         offset="0"
         id="stop43270" />
    </linearGradient>
    <linearGradient
       id="linearGradient43152">
      <stop
         style="stop-color:#fff585;stop-opacity:1;"
         offset="0"
         id="stop43150" />
    </linearGradient>
    <linearGradient
       id="linearGradient43090">
      <stop
         style="stop-color:#fff585;stop-opacity:1;"
         offset="0"
         id="stop43088" />
    </linearGradient>
    <linearGradient
       id="linearGradient42492">
      <stop
         style="stop-color:#0d4e87;stop-opacity:1;"
         offset="0"
         id="stop42490" />
    </linearGradient>
    <linearGradient
       id="linearGradient26043">
      <stop
         style="stop-color:#7ebfb4;stop-opacity:1;"
         offset="0"
         id="stop26041" />
    </linearGradient>
    <linearGradient
       id="linearGradient1062549">
      <stop
         style="stop-color:#9cd7cd;stop-opacity:1;"
         offset="0"
         id="stop1062547" />
    </linearGradient>
    <linearGradient
       id="linearGradient1062543">
      <stop
         style="stop-color:#87b0aa;stop-opacity:1;"
         offset="0"
         id="stop1062541" />
    </linearGradient>
    <linearGradient
       id="teal-60">
      <stop
         style="stop-color:#87b0aa;stop-opacity:1;"
         offset="0"
         id="stop1055203" />
    </linearGradient>
    <linearGradient
       id="teal-70">
      <stop
         style="stop-color:#5c8d88;stop-opacity:1;"
         offset="0"
         id="stop1025893" />
    </linearGradient>
    <linearGradient
       id="linearGradient1018406">
      <stop
         style="stop-color:#bf7106;stop-opacity:1;"
         offset="0"
         id="stop1018404" />
    </linearGradient>
    <linearGradient
       id="linearGradient1014705">
      <stop
         style="stop-color:#bf7106;stop-opacity:1;"
         offset="0"
         id="stop1014703" />
    </linearGradient>
    <linearGradient
       id="linearGradient1011045">
      <stop
         style="stop-color:#e05654;stop-opacity:1;"
         offset="0"
         id="stop1011043" />
    </linearGradient>
    <linearGradient
       id="linearGradient1011037">
      <stop
         style="stop-color:#e05654;stop-opacity:1;"
         offset="0"
         id="stop1011035" />
    </linearGradient>
    <linearGradient
       id="linearGradient1011012">
      <stop
         style="stop-color:#ffffff;stop-opacity:1;"
         offset="0"
         id="stop1011010" />
    </linearGradient>
    <linearGradient
       id="magenta">
      <stop
         style="stop-color:#e05654;stop-opacity:1;"
         offset="0"
         id="stop1007360" />
    </linearGradient>
    <linearGradient
       id="linearGradient938871">
      <stop
         style="stop-color:#0d4e87;stop-opacity:1"
         offset="0"
         id="stop938867" />
      <stop
         style="stop-color:#c5e5da;stop-opacity:0;"
         offset="1"
         id="stop938869" />
    </linearGradient>
    <linearGradient
       id="linearGradient909085">
      <stop
         style="stop-color:#000000;stop-opacity:1;"
         offset="0"
         id="stop909083" />
    </linearGradient>
    <linearGradient
       id="linearGradient909042">
      <stop
         style="stop-color:#000000;stop-opacity:1;"
         offset="0"
         id="stop909040" />
    </linearGradient>
    <linearGradient
       id="linearGradient858661">
      <stop
         style="stop-color:#ffffff;stop-opacity:1;"
         offset="0"
         id="stop858659" />
    </linearGradient>
    <linearGradient
       id="linearGradient840049">
      <stop
         style="stop-color:#ffffff;stop-opacity:1;"
         offset="0"
         id="stop840047" />
    </linearGradient>
    <linearGradient
       id="linearGradient586458">
      <stop
         style="stop-color:#ffffff;stop-opacity:1;"
         offset="0"
         id="stop586456" />
    </linearGradient>
    <linearGradient
       id="linearGradient576254">
      <stop
         style="stop-color:#87b0aa;stop-opacity:1;"
         offset="0"
         id="stop576252" />
    </linearGradient>
    <linearGradient
       id="linearGradient475305">
      <stop
         style="stop-color:#ffffff;stop-opacity:1;"
         offset="0"
         id="stop475303" />
    </linearGradient>
    <linearGradient
       id="linearGradient475259">
      <stop
         style="stop-color:#ffffff;stop-opacity:1;"
         offset="0"
         id="stop475257" />
    </linearGradient>
    <linearGradient
       id="linearGradient475213">
      <stop
         style="stop-color:#ffffff;stop-opacity:1;"
         offset="0"
         id="stop475211" />
    </linearGradient>
    <linearGradient
       id="linearGradient475167">
      <stop
         style="stop-color:#ffffff;stop-opacity:1;"
         offset="0"
         id="stop475165" />
    </linearGradient>
    <linearGradient
       id="linearGradient469770">
      <stop
         style="stop-color:#ffffff;stop-opacity:1;"
         offset="0"
         id="stop469768" />
    </linearGradient>
    <linearGradient
       id="linearGradient469686">
      <stop
         style="stop-color:#ffffff;stop-opacity:1;"
         offset="0"
         id="stop469684" />
    </linearGradient>
    <linearGradient
       id="linearGradient443579">
      <stop
         style="stop-color:#fff585;stop-opacity:0.89999998"
         offset="0"
         id="stop443575" />
      <stop
         style="stop-color:#fff585;stop-opacity:0"
         offset="1"
         id="stop443577" />
    </linearGradient>
    <linearGradient
       id="linearGradient420189">
      <stop
         style="stop-color:#a9d7d0;stop-opacity:1;"
         offset="0"
         id="stop420187" />
    </linearGradient>
    <linearGradient
       id="linearGradient420164">
      <stop
         style="stop-color:#a9d7d0;stop-opacity:1;"
         offset="0"
         id="stop420162" />
    </linearGradient>
    <linearGradient
       id="linearGradient389224">
      <stop
         style="stop-color:#000000;stop-opacity:1;"
         offset="0"
         id="stop389222" />
    </linearGradient>
    <linearGradient
       id="linearGradient376223">
      <stop
         style="stop-color:#ffffff;stop-opacity:1;"
         offset="0"
         id="stop376221" />
    </linearGradient>
    <linearGradient
       id="linearGradient373266">
      <stop
         style="stop-color:#000000;stop-opacity:1;"
         offset="0"
         id="stop373264" />
    </linearGradient>
    <linearGradient
       id="linearGradient372569">
      <stop
         style="stop-color:#000000;stop-opacity:1;"
         offset="0"
         id="stop372567" />
    </linearGradient>
    <linearGradient
       id="linearGradient372563">
      <stop
         style="stop-color:#000000;stop-opacity:1;"
         offset="0"
         id="stop372561" />
    </linearGradient>
    <linearGradient
       id="linearGradient271166">
      <stop
         style="stop-color:#3d5d58;stop-opacity:1;"
         offset="0"
         id="stop271164" />
    </linearGradient>
    <linearGradient
       id="linearGradient255961">
      <stop
         style="stop-color:#fff585;stop-opacity:1;"
         offset="0"
         id="stop255959" />
    </linearGradient>
    <linearGradient
       id="linearGradient239299">
      <stop
         style="stop-color:#0d4e87;stop-opacity:1;"
         offset="0"
         id="stop239297" />
    </linearGradient>
    <linearGradient
       id="linearGradient75053">
      <stop
         style="stop-color:#fff585;stop-opacity:1;"
         offset="0"
         id="stop75051" />
    </linearGradient>
    <linearGradient
       id="linearGradient75045">
      <stop
         style="stop-color:#9cd7cd;stop-opacity:1;"
         offset="0"
         id="stop75043" />
    </linearGradient>
    <linearGradient
       id="linearGradient75039">
      <stop
         style="stop-color:#fff585;stop-opacity:1;"
         offset="0"
         id="stop75037" />
    </linearGradient>
    <linearGradient
       id="teal-20">
      <stop
         style="stop-color:#c5e5da;stop-opacity:1;"
         offset="0"
         id="stop73023" />
    </linearGradient>
    <linearGradient
       id="teal-30">
      <stop
         style="stop-color:#9cd7cd;stop-opacity:1;"
         offset="0"
         id="stop73017" />
    </linearGradient>
    <linearGradient
       id="teal-50">
      <stop
         style="stop-color:#7ebfb4;stop-opacity:1;"
         offset="0"
         id="stop73011" />
    </linearGradient>
    <linearGradient
       id="night">
      <stop
         style="stop-color:#0d4e87;stop-opacity:1;"
         offset="0"
         id="stop72015" />
    </linearGradient>
    <linearGradient
       id="day">
      <stop
         style="stop-color:#fff585;stop-opacity:1;"
         offset="0"
         id="stop72009" />
    </linearGradient>
    <clipPath
       clipPathUnits="userSpaceOnUse"
       id="clipPath11961-85-5">
      <rect
         style="fill:#cccccc;fill-opacity:1;stroke-width:6;stroke-linecap:round;stroke-linejoin:round"
         id="rect11963-3-6"
         width="179.99994"
         height="179.99994"
         x="1670"
         y="420"
         ry="20" />
    </clipPath>
    <clipPath
       clipPathUnits="userSpaceOnUse"
       id="clipPath11957-6-1">
      <rect
         style="fill:#cccccc;fill-opacity:1;stroke-width:6;stroke-linecap:round;stroke-linejoin:round"
         id="rect11959-6-02"
         width="179.99994"
         height="179.99994"
         x="1670"
         y="420"
         ry="20" />
    </clipPath>
    <clipPath
       clipPathUnits="userSpaceOnUse"
       id="clipPath11953-0-9">
      <rect
         style="fill:#cccccc;fill-opacity:1;stroke-width:6;stroke-linecap:round;stroke-linejoin:round"
         id="rect11955-0-1"
         width="179.99994"
         height="179.99994"
         x="1670"
         y="420"
         ry="20" />
    </clipPath>
    <clipPath
       clipPathUnits="userSpaceOnUse"
       id="clipPath11949-5-6">
      <rect
         style="fill:#cccccc;fill-opacity:1;stroke-width:6;stroke-linecap:round;stroke-linejoin:round"
         id="rect11951-94-5"
         width="179.99994"
         height="179.99994"
         x="1670"
         y="420"
         ry="20" />
    </clipPath>
    <linearGradient
       xlink:href="#emerald-dark"
       id="linearGradient474765"
       gradientUnits="userSpaceOnUse"
       x1="600"
       y1="540"
       x2="1320"
       y2="540" />
    <linearGradient
       xlink:href="#teal-10"
       id="linearGradient499116"
       x1="610"
       y1="540"
       x2="1310"
       y2="540"
       gradientUnits="userSpaceOnUse" />
    <linearGradient
       xlink:href="#emerald-dark"
       id="linearGradient927067"
       x1="910"
       y1="431.77832"
       x2="1010"
       y2="431.77832"
       gradientUnits="userSpaceOnUse"
       gradientTransform="matrix(0.92000029,0,0,0.95431684,76.91584,17.946671)" />
    <radialGradient
       xlink:href="#linearGradient156748"
       id="radialGradient1103774"
       cx="960"
       cy="404"
       fx="960"
       fy="404"
       r="90"
       gradientUnits="userSpaceOnUse"
       gradientTransform="matrix(0.86252563,0,0,0.84849717,131.97539,61.207141)" />
    <rect
       x="7881.73"
       y="322.55756"
       width="7083.6201"
       height="81.57666"
       id="rect145417" />
    <rect
       x="1860"
       y="470"
       width="0"
       height="230"
       id="rect145419" />
    <rect
       x="649.83838"
       y="534.30164"
       width="620.79089"
       height="52.398018"
       id="rect145421" />
    <linearGradient
       xlink:href="#night"
       id="linearGradient145435"
       gradientUnits="userSpaceOnUse"
       x1="1670"
       y1="555"
       x2="1849.9999"
       y2="555" />
    <linearGradient
       xlink:href="#night"
       id="linearGradient145437"
       gradientUnits="userSpaceOnUse"
       x1="1670"
       y1="465"
       x2="1849.9999"
       y2="465" />
    <linearGradient
       xlink:href="#day"
       id="linearGradient145439"
       gradientUnits="userSpaceOnUse"
       x1="1760"
       y1="509.99997"
       x2="1849.9999"
       y2="509.99997" />
    <linearGradient
       xlink:href="#day"
       id="linearGradient145441"
       gradientUnits="userSpaceOnUse"
       x1="1670"
       y1="509.99997"
       x2="1760"
       y2="509.99997" />
    <linearGradient
       xlink:href="#emerald-dark"
       id="linearGradient204495"
       gradientUnits="userSpaceOnUse"
       gradientTransform="translate(-62.825331,-14)"
       x1="804.07544"
       y1="515.70007"
       x2="1115.9246"
       y2="515.70007" />
    <linearGradient
       xlink:href="#magenta"
       id="linearGradient204497"
       gradientUnits="userSpaceOnUse"
       gradientTransform="translate(-1.9702725,26)"
       x1="907.92212"
       y1="606.60339"
       x2="1022.9483"
       y2="606.60339" />
    <linearGradient
       xlink:href="#emerald-dark"
       id="linearGradient204499"
       gradientUnits="userSpaceOnUse"
       x1="687.30768"
       y1="558.09851"
       x2="1234.9698"
       y2="558.09851" />
  </defs>
  <g
     id="layer24"
     style="display:inline"
     transform="translate(-600,-314)">
    <g
       id="g145415"
       style="display:inline;opacity:1">
      <circle
         style="display:inline;fill:url(#radialGradient1103774);fill-opacity:1;stroke:none;stroke-width:6.46131;stroke-linecap:round;stroke-linejoin:round;stroke-miterlimit:4;stroke-dasharray:none;stroke-opacity:1"
         id="circle145373"
         cx="960"
         cy="404"
         r="90" />
      <rect
         style="opacity:1;fill:url(#linearGradient474765);fill-opacity:1;stroke:none;stroke-width:3.11804;stroke-linecap:round;stroke-linejoin:miter;stroke-miterlimit:4;stroke-dasharray:none;stroke-opacity:1"
         id="rect145375"
         width="720"
         height="280"
         x="600"
         y="400"
         ry="20" />
      <rect
         style="display:inline;opacity:1;fill:url(#linearGradient499116);fill-opacity:1;stroke:none;stroke-width:3.11804;stroke-linecap:round;stroke-linejoin:miter;stroke-miterlimit:4;stroke-dasharray:none;stroke-opacity:1"
         id="rect145377"
         width="700"
         height="260"
         x="610"
         y="410"
         ry="10" />
      <text
         xml:space="preserve"
         id="text145379"
         style="font-style:normal;font-weight:normal;font-size:40px;line-height:1.25;font-family:sans-serif;letter-spacing:0px;word-spacing:0px;white-space:pre;shape-inside:url(#rect145417);display:inline;fill:#000000;fill-opacity:1;stroke:none" />
      <text
         xml:space="preserve"
         id="text145381"
         style="font-style:normal;font-weight:normal;font-size:40px;line-height:1.25;font-family:sans-serif;letter-spacing:0px;word-spacing:0px;white-space:pre;shape-inside:url(#rect145419);display:inline;fill:#000000;fill-opacity:1;stroke:none" />
      <path
         id="path145383"
         style="opacity:0.1;fill:url(#linearGradient927067);fill-opacity:1;stroke-width:3.748;stroke-linecap:round;stroke-linejoin:round"
         d="m 1006.1161,400 v 41.24025 c 0,5.28691 -4.1031,9.54317 -9.19998,9.54317 h -73.60001 c -5.0968,0 -9.2,-4.25626 -9.2,-9.54317 V 400 Z" />
      <g
         id="g145395"
         transform="matrix(0,0.36363644,-0.36363644,0,1145.4546,-236.00012)"
         style="display:inline">
        <rect
           style="fill:#ffffff;fill-opacity:1;stroke-width:5.99998;stroke-linecap:round;stroke-linejoin:round"
           id="rect145385"
           width="219.99995"
           height="220"
           x="1650"
           y="400"
           ry="19.999842" />
        <path
           style="fill:url(#linearGradient145435);fill-opacity:1;stroke:none;stroke-width:5;stroke-linecap:round;stroke-linejoin:miter;stroke-miterlimit:4;stroke-dasharray:none;stroke-opacity:1"
           d="m 1670,600 90,-90 90,90 z"
           id="path145387"
           clip-path="url(#clipPath11961-85-5)" />
        <path
           style="fill:url(#linearGradient145437);fill-opacity:1;stroke:none;stroke-width:5;stroke-linecap:round;stroke-linejoin:miter;stroke-miterlimit:4;stroke-dasharray:none;stroke-opacity:1"
           d="m 1670,420 90,90 90,-90 z"
           id="path145389"
           clip-path="url(#clipPath11957-6-1)" />
        <path
           style="fill:url(#linearGradient145439);fill-opacity:1;stroke:none;stroke-width:5;stroke-linecap:round;stroke-linejoin:miter;stroke-miterlimit:4;stroke-dasharray:none;stroke-opacity:1"
           d="m 1850,420 -90,90 90,90 z"
           id="path145391"
           clip-path="url(#clipPath11953-0-9)" />
        <path
           style="fill:url(#linearGradient145441);fill-opacity:1;stroke:none;stroke-width:5;stroke-linecap:round;stroke-linejoin:miter;stroke-miterlimit:4;stroke-dasharray:none;stroke-opacity:1"
           d="m 1670,420 90,90 -90,90 z"
           id="path145393"
           clip-path="url(#clipPath11949-5-6)" />
      </g>
      <text
         xml:space="preserve"
         style="font-style:normal;font-weight:normal;font-size:53.3333px;line-height:1.25;font-family:sans-serif;letter-spacing:0px;word-spacing:0px;display:none;fill:url(#linearGradient204495);fill-opacity:1;stroke:none"
         x="736.43243"
         y="520.05945"
         id="text145399"><tspan
           id="tspan145397"
           x="0"
           y="0"
           style="font-style:normal;font-variant:normal;font-weight:bold;font-stretch:normal;font-size:53.3333px;font-family:Calcutta;-inkscape-font-specification:'Calcutta Bold';fill:url(#linearGradient204495);fill-opacity:1">Spring has arrived</tspan></text>
      <text
         xml:space="preserve"
         style="font-style:normal;font-weight:normal;font-size:24px;line-height:1.25;font-family:sans-serif;letter-spacing:0px;word-spacing:0px;display:none;fill:url(#linearGradient204497);fill-opacity:1;stroke:none"
         x="903.97266"
         y="639.75183"
         id="text145403"><tspan
           id="tspan145401"
           x="0"
           y="0"
           style="font-style:normal;font-variant:normal;font-weight:600;font-stretch:normal;font-size:24px;font-family:Calcutta;-inkscape-font-specification:'Calcutta Semi-Bold';fill:url(#linearGradient204497);fill-opacity:1">play again</tspan></text>
      <text
         xml:space="preserve"
         id="text145413"
         style="font-style:normal;font-weight:normal;font-size:18.6667px;line-height:1.25;font-family:sans-serif;letter-spacing:0px;word-spacing:0px;white-space:pre;shape-inside:url(#rect145421);display:none;fill:url(#linearGradient204499);fill-opacity:1;stroke:none"
         x="274.22305"
         y="0"
         transform="translate(0,14)" />
    </g>
  </g>
</svg>
