<?xml version="1.0" encoding="UTF-8" standalone="no"?>
<!-- Created with Inkscape (http://www.inkscape.org/) -->

<svg
   width="30"
   height="30"
   viewBox="0 0 30 30"
   version="1.1"
   id="svg5"
   xmlns="http://www.w3.org/2000/svg"
   xmlns:svg="http://www.w3.org/2000/svg">
  <defs
     id="defs2">
    <linearGradient
       id="linearGradient16001">
      <stop
         style="stop-color:#fff585;stop-opacity:1;"
         offset="0"
         id="stop15999" />
    </linearGradient>
    <linearGradient
       id="linearGradient15910">
      <stop
         style="stop-color:#000000;stop-opacity:1;"
         offset="0"
         id="stop15908" />
    </linearGradient>
    <linearGradient
       id="linearGradient10764">
      <stop
         style="stop-color:#ffffff;stop-opacity:1;"
         offset="0"
         id="stop10762" />
    </linearGradient>
    <linearGradient
       id="linearGradient10666">
      <stop
         style="stop-color:#000000;stop-opacity:1;"
         offset="0"
         id="stop10664" />
    </linearGradient>
    <linearGradient
       id="linearGradient126978">
      <stop
         style="stop-color:#ffe23e;stop-opacity:1;"
         offset="0"
         id="stop126976" />
    </linearGradient>
    <linearGradient
       id="day-flower">
      <stop
         style="stop-color:#ffe23e;stop-opacity:1;"
         offset="0"
         id="stop126910" />
    </linearGradient>
    <linearGradient
       id="linearGradient117979">
      <stop
         style="stop-color:#fff585;stop-opacity:1;"
         offset="0"
         id="stop117977" />
    </linearGradient>
    <linearGradient
       id="linearGradient113394">
      <stop
         style="stop-color:#ffffff;stop-opacity:1;"
         offset="0"
         id="stop113392" />
    </linearGradient>
    <linearGradient
       id="linearGradient108849">
      <stop
         style="stop-color:#ffffff;stop-opacity:1;"
         offset="0"
         id="stop108847" />
    </linearGradient>
    <linearGradient
       id="linearGradient108614">
      <stop
         style="stop-color:#ffffff;stop-opacity:1;"
         offset="0"
         id="stop108612" />
    </linearGradient>
    <linearGradient
       id="linearGradient1103603">
      <stop
         style="stop-color:#1a7374;stop-opacity:1;"
         offset="0"
         id="stop1103601" />
    </linearGradient>
    <linearGradient
       id="linearGradient1088623">
      <stop
         style="stop-color:#0d4e87;stop-opacity:1;"
         offset="0"
         id="stop1088621" />
    </linearGradient>
    <linearGradient
       id="linearGradient1008028">
      <stop
         style="stop-color:#1a7374;stop-opacity:1;"
         offset="0"
         id="stop1008026" />
    </linearGradient>
    <linearGradient
       id="linearGradient985290">
      <stop
         style="stop-color:#ffffff;stop-opacity:1"
         offset="0"
         id="stop985286" />
      <stop
         style="stop-color:#ffffff;stop-opacity:0"
         offset="1"
         id="stop985288" />
    </linearGradient>
    <linearGradient
       id="linearGradient927065">
      <stop
         style="stop-color:#1a7374;stop-opacity:1;"
         offset="0"
         id="stop927063" />
    </linearGradient>
    <linearGradient
       id="linearGradient758633">
      <stop
         style="stop-color:#12762a;stop-opacity:1;"
         offset="0"
         id="stop758631" />
    </linearGradient>
    <linearGradient
       id="linearGradient744385">
      <stop
         style="stop-color:#000000;stop-opacity:1;"
         offset="0"
         id="stop744383" />
    </linearGradient>
    <linearGradient
       id="linearGradient667915">
      <stop
         style="stop-color:#ffffff;stop-opacity:1;"
         offset="0"
         id="stop667913" />
    </linearGradient>
    <linearGradient
       id="linearGradient667873">
      <stop
         style="stop-color:#000000;stop-opacity:1;"
         offset="0"
         id="stop667871" />
    </linearGradient>
    <linearGradient
       id="linearGradient578021">
      <stop
         style="stop-color:#000000;stop-opacity:1;"
         offset="0"
         id="stop578019" />
    </linearGradient>
    <linearGradient
       id="linearGradient540101">
      <stop
         style="stop-color:#000000;stop-opacity:1;"
         offset="0"
         id="stop540099" />
    </linearGradient>
    <linearGradient
       id="teal-10">
      <stop
         style="stop-color:#edfbff;stop-opacity:1;"
         offset="0"
         id="stop499112" />
    </linearGradient>
    <linearGradient
       id="linearGradient499072">
      <stop
         style="stop-color:#edfbff;stop-opacity:1;"
         offset="0"
         id="stop499070" />
    </linearGradient>
    <linearGradient
       id="linearGradient481348">
      <stop
         style="stop-color:#edfbff;stop-opacity:1;"
         offset="0"
         id="stop481346" />
    </linearGradient>
    <linearGradient
       id="linearGradient473279">
      <stop
         style="stop-color:#ffffff;stop-opacity:1;"
         offset="0"
         id="stop473277" />
    </linearGradient>
    <linearGradient
       id="linearGradient469064">
      <stop
         style="stop-color:#000000;stop-opacity:1;"
         offset="0"
         id="stop469062" />
    </linearGradient>
    <linearGradient
       id="linearGradient468971">
      <stop
         style="stop-color:#ffffff;stop-opacity:1;"
         offset="0"
         id="stop468969" />
    </linearGradient>
    <linearGradient
       id="linearGradient460556">
      <stop
         style="stop-color:#000000;stop-opacity:1;"
         offset="0"
         id="stop460554" />
    </linearGradient>
    <linearGradient
       id="linearGradient370307">
      <stop
         style="stop-color:#ffffff;stop-opacity:1;"
         offset="0"
         id="stop370305" />
    </linearGradient>
    <linearGradient
       id="linearGradient345040">
      <stop
         style="stop-color:#ffffff;stop-opacity:1;"
         offset="0"
         id="stop345038" />
    </linearGradient>
    <linearGradient
       id="linearGradient345034">
      <stop
         style="stop-color:#ff0000;stop-opacity:1;"
         offset="0"
         id="stop345032" />
    </linearGradient>
    <linearGradient
       id="linearGradient278281">
      <stop
         style="stop-color:#1a7374;stop-opacity:1;"
         offset="0"
         id="stop278279" />
    </linearGradient>
    <linearGradient
       id="emerald-dark">
      <stop
         style="stop-color:#1a7374;stop-opacity:1;"
         offset="0"
         id="stop274044" />
    </linearGradient>
    <linearGradient
       id="linearGradient219091">
      <stop
         style="stop-color:#ffd5d5;stop-opacity:1;"
         offset="0"
         id="stop219089" />
    </linearGradient>
    <linearGradient
       id="linearGradient218356">
      <stop
         style="stop-color:#ffd5d5;stop-opacity:1;"
         offset="0"
         id="stop218354" />
    </linearGradient>
    <linearGradient
       id="linearGradient188758">
      <stop
         style="stop-color:#cc776e;stop-opacity:1;"
         offset="0"
         id="stop188756" />
    </linearGradient>
    <linearGradient
       id="linearGradient147405">
      <stop
         style="stop-color:#f79a91;stop-opacity:1;"
         offset="0"
         id="stop147403" />
    </linearGradient>
    <linearGradient
       id="linearGradient68199">
      <stop
         style="stop-color:#ffffff;stop-opacity:1;"
         offset="0"
         id="stop68197" />
    </linearGradient>
    <linearGradient
       id="linearGradient43272">
      <stop
         style="stop-color:#fff585;stop-opacity:1;"
         offset="0"
         id="stop43270" />
    </linearGradient>
    <linearGradient
       id="linearGradient43152">
      <stop
         style="stop-color:#fff585;stop-opacity:1;"
         offset="0"
         id="stop43150" />
    </linearGradient>
    <linearGradient
       id="linearGradient43090">
      <stop
         style="stop-color:#fff585;stop-opacity:1;"
         offset="0"
         id="stop43088" />
    </linearGradient>
    <linearGradient
       id="linearGradient42492">
      <stop
         style="stop-color:#0d4e87;stop-opacity:1;"
         offset="0"
         id="stop42490" />
    </linearGradient>
    <linearGradient
       id="linearGradient26043">
      <stop
         style="stop-color:#7ebfb4;stop-opacity:1;"
         offset="0"
         id="stop26041" />
    </linearGradient>
    <linearGradient
       id="linearGradient1062549">
      <stop
         style="stop-color:#9cd7cd;stop-opacity:1;"
         offset="0"
         id="stop1062547" />
    </linearGradient>
    <linearGradient
       id="linearGradient1062543">
      <stop
         style="stop-color:#87b0aa;stop-opacity:1;"
         offset="0"
         id="stop1062541" />
    </linearGradient>
    <linearGradient
       id="teal-60">
      <stop
         style="stop-color:#87b0aa;stop-opacity:1;"
         offset="0"
         id="stop1055203" />
    </linearGradient>
    <linearGradient
       id="teal-70">
      <stop
         style="stop-color:#5c8d88;stop-opacity:1;"
         offset="0"
         id="stop1025893" />
    </linearGradient>
    <linearGradient
       id="linearGradient1018406">
      <stop
         style="stop-color:#bf7106;stop-opacity:1;"
         offset="0"
         id="stop1018404" />
    </linearGradient>
    <linearGradient
       id="linearGradient1014705">
      <stop
         style="stop-color:#bf7106;stop-opacity:1;"
         offset="0"
         id="stop1014703" />
    </linearGradient>
    <linearGradient
       id="linearGradient1011045">
      <stop
         style="stop-color:#e05654;stop-opacity:1;"
         offset="0"
         id="stop1011043" />
    </linearGradient>
    <linearGradient
       id="linearGradient1011037">
      <stop
         style="stop-color:#e05654;stop-opacity:1;"
         offset="0"
         id="stop1011035" />
    </linearGradient>
    <linearGradient
       id="linearGradient1011012">
      <stop
         style="stop-color:#ffffff;stop-opacity:1;"
         offset="0"
         id="stop1011010" />
    </linearGradient>
    <linearGradient
       id="magenta">
      <stop
         style="stop-color:#e05654;stop-opacity:1;"
         offset="0"
         id="stop1007360" />
    </linearGradient>
    <linearGradient
       id="linearGradient938871">
      <stop
         style="stop-color:#0d4e87;stop-opacity:1"
         offset="0"
         id="stop938867" />
      <stop
         style="stop-color:#c5e5da;stop-opacity:0;"
         offset="1"
         id="stop938869" />
    </linearGradient>
    <linearGradient
       id="linearGradient909085">
      <stop
         style="stop-color:#000000;stop-opacity:1;"
         offset="0"
         id="stop909083" />
    </linearGradient>
    <linearGradient
       id="linearGradient909042">
      <stop
         style="stop-color:#000000;stop-opacity:1;"
         offset="0"
         id="stop909040" />
    </linearGradient>
    <linearGradient
       id="linearGradient858661">
      <stop
         style="stop-color:#ffffff;stop-opacity:1;"
         offset="0"
         id="stop858659" />
    </linearGradient>
    <linearGradient
       id="linearGradient840049">
      <stop
         style="stop-color:#ffffff;stop-opacity:1;"
         offset="0"
         id="stop840047" />
    </linearGradient>
    <linearGradient
       id="linearGradient586458">
      <stop
         style="stop-color:#ffffff;stop-opacity:1;"
         offset="0"
         id="stop586456" />
    </linearGradient>
    <linearGradient
       id="linearGradient576254">
      <stop
         style="stop-color:#87b0aa;stop-opacity:1;"
         offset="0"
         id="stop576252" />
    </linearGradient>
    <linearGradient
       id="linearGradient475305">
      <stop
         style="stop-color:#ffffff;stop-opacity:1;"
         offset="0"
         id="stop475303" />
    </linearGradient>
    <linearGradient
       id="linearGradient475259">
      <stop
         style="stop-color:#ffffff;stop-opacity:1;"
         offset="0"
         id="stop475257" />
    </linearGradient>
    <linearGradient
       id="linearGradient475213">
      <stop
         style="stop-color:#ffffff;stop-opacity:1;"
         offset="0"
         id="stop475211" />
    </linearGradient>
    <linearGradient
       id="linearGradient475167">
      <stop
         style="stop-color:#ffffff;stop-opacity:1;"
         offset="0"
         id="stop475165" />
    </linearGradient>
    <linearGradient
       id="linearGradient469770">
      <stop
         style="stop-color:#ffffff;stop-opacity:1;"
         offset="0"
         id="stop469768" />
    </linearGradient>
    <linearGradient
       id="linearGradient469686">
      <stop
         style="stop-color:#ffffff;stop-opacity:1;"
         offset="0"
         id="stop469684" />
    </linearGradient>
    <linearGradient
       id="linearGradient443579">
      <stop
         style="stop-color:#fff585;stop-opacity:0.89999998"
         offset="0"
         id="stop443575" />
      <stop
         style="stop-color:#fff585;stop-opacity:0"
         offset="1"
         id="stop443577" />
    </linearGradient>
    <linearGradient
       id="linearGradient420189">
      <stop
         style="stop-color:#a9d7d0;stop-opacity:1;"
         offset="0"
         id="stop420187" />
    </linearGradient>
    <linearGradient
       id="linearGradient420164">
      <stop
         style="stop-color:#a9d7d0;stop-opacity:1;"
         offset="0"
         id="stop420162" />
    </linearGradient>
    <linearGradient
       id="linearGradient389224">
      <stop
         style="stop-color:#000000;stop-opacity:1;"
         offset="0"
         id="stop389222" />
    </linearGradient>
    <linearGradient
       id="linearGradient376223">
      <stop
         style="stop-color:#ffffff;stop-opacity:1;"
         offset="0"
         id="stop376221" />
    </linearGradient>
    <linearGradient
       id="linearGradient373266">
      <stop
         style="stop-color:#000000;stop-opacity:1;"
         offset="0"
         id="stop373264" />
    </linearGradient>
    <linearGradient
       id="linearGradient372569">
      <stop
         style="stop-color:#000000;stop-opacity:1;"
         offset="0"
         id="stop372567" />
    </linearGradient>
    <linearGradient
       id="linearGradient372563">
      <stop
         style="stop-color:#000000;stop-opacity:1;"
         offset="0"
         id="stop372561" />
    </linearGradient>
    <linearGradient
       id="linearGradient271166">
      <stop
         style="stop-color:#3d5d58;stop-opacity:1;"
         offset="0"
         id="stop271164" />
    </linearGradient>
    <linearGradient
       id="linearGradient255961">
      <stop
         style="stop-color:#fff585;stop-opacity:1;"
         offset="0"
         id="stop255959" />
    </linearGradient>
    <linearGradient
       id="linearGradient239299">
      <stop
         style="stop-color:#0d4e87;stop-opacity:1;"
         offset="0"
         id="stop239297" />
    </linearGradient>
    <linearGradient
       id="linearGradient75053">
      <stop
         style="stop-color:#fff585;stop-opacity:1;"
         offset="0"
         id="stop75051" />
    </linearGradient>
    <linearGradient
       id="linearGradient75045">
      <stop
         style="stop-color:#9cd7cd;stop-opacity:1;"
         offset="0"
         id="stop75043" />
    </linearGradient>
    <linearGradient
       id="linearGradient75039">
      <stop
         style="stop-color:#fff585;stop-opacity:1;"
         offset="0"
         id="stop75037" />
    </linearGradient>
    <linearGradient
       id="teal-20">
      <stop
         style="stop-color:#c5e5da;stop-opacity:1;"
         offset="0"
         id="stop73023" />
    </linearGradient>
    <linearGradient
       id="teal-30">
      <stop
         style="stop-color:#9cd7cd;stop-opacity:1;"
         offset="0"
         id="stop73017" />
    </linearGradient>
    <linearGradient
       id="teal-50">
      <stop
         style="stop-color:#7ebfb4;stop-opacity:1;"
         offset="0"
         id="stop73011" />
    </linearGradient>
    <linearGradient
       id="night">
      <stop
         style="stop-color:#0d4e87;stop-opacity:1;"
         offset="0"
         id="stop72015" />
    </linearGradient>
    <linearGradient
       id="day">
      <stop
         style="stop-color:#fff585;stop-opacity:1;"
         offset="0"
         id="stop72009" />
    </linearGradient>
  </defs>
  <g
     id="layer9"
     style="display:inline"
     transform="translate(-793.83896,-421.61389)">
    <g
       id="layer27"
       style="display:inline">
      <g
         id="g180574"
         transform="matrix(0.33333333,0,0,0.33333333,487.1723,261.61389)">
        <circle
           style="display:inline;fill:#24bd49;fill-opacity:1;stroke:none;stroke-width:4;stroke-linecap:round;stroke-linejoin:round;stroke-miterlimit:4;stroke-dasharray:none;stroke-opacity:0.999711"
           id="path176360-5"
           cx="965"
           cy="525"
           r="45" />
        <g
           id="rect92429-7-2"
           style="fill:#ffffff;fill-opacity:1"
           transform="translate(75.090667,74.104465)">
          <path
             style="color:#000000;fill:#ffffff;fill-opacity:1;stroke-width:4;stroke-linecap:round;stroke-linejoin:round;-inkscape-stroke:none"
             d="m 910.24806,436.99779 c -0.3304,0 -0.6609,0.12574 -0.91406,0.37891 l -28.36524,28.36523 -10.48242,-10.48242 c -0.50632,-0.50633 -1.3218,-0.50633 -1.82813,0 l -1.96484,1.96484 c -0.50633,0.50633 -0.50632,1.3218 0,1.82813 l 11.39649,11.39648 1.96484,1.96484 c 0.0633,0.0633 0.13139,0.11855 0.20312,0.16602 0.0717,0.0475 0.14684,0.0875 0.22461,0.11914 0.0778,0.0317 0.15885,0.0545 0.24024,0.0703 0.0814,0.0158 0.16349,0.0234 0.24609,0.0234 0.0826,0 0.1647,-0.008 0.2461,-0.0234 0.0814,-0.0158 0.16246,-0.0387 0.24023,-0.0703 0.0778,-0.0316 0.15287,-0.0717 0.22461,-0.11914 0.0717,-0.0475 0.13983,-0.10272 0.20312,-0.16602 l 1.96485,-1.96679 29.27734,-29.27735 c 0.50633,-0.50632 0.50633,-1.3218 0,-1.82812 l -1.96484,-1.96484 c -0.25316,-0.25317 -0.58172,-0.37891 -0.91211,-0.37891 z"
             id="path148173" />
          <path
             style="color:#000000;fill:#ffffff;fill-opacity:1;stroke-linecap:round;stroke-linejoin:round;-inkscape-stroke:none"
             d="m 910.24805,434.99805 c -0.83783,0 -1.69369,0.33037 -2.32813,0.96484 l -26.95117,26.95117 -9.06836,-9.06836 c -1.26556,-1.26558 -3.39069,-1.26556 -4.65625,0 l -1.96484,1.96485 c -1.26556,1.26556 -1.26553,3.3907 0,4.65625 l 11.39648,11.39648 1.96484,1.96484 c 0.15856,0.15856 0.33061,0.29995 0.51172,0.41993 0.17706,0.1173 0.36992,0.21882 0.57618,0.30273 0.21696,0.0884 0.42238,0.14458 0.61328,0.18164 0.21054,0.0409 0.42167,0.0606 0.62695,0.0606 0.21174,0 0.41875,-0.0211 0.61719,-0.0586 a 2.0002,2.0002 0 0 0 0.01,-0.002 c 0.19245,-0.0374 0.39673,-0.0925 0.61133,-0.17969 0.20877,-0.0848 0.40151,-0.18918 0.57617,-0.30468 a 2.0002,2.0002 0 0 0 0.002,0 c 0.18035,-0.11949 0.35221,-0.26039 0.51171,-0.41993 l 1.96485,-1.96679 29.27734,-29.27735 c 1.26558,-1.26555 1.26558,-3.39069 0,-4.65625 l -1.96484,-1.96484 c -0.63083,-0.63085 -1.48834,-0.96484 -2.32617,-0.96484 z m -0.002,4.29492 0.96485,0.96289 -28.77735,28.77734 -1.46484,1.4668 -1.46484,-1.46484 -10.89649,-10.89649 0.96485,-0.96484 9.98242,9.98242 a 2.0002,2.0002 0 0 0 2.82812,0 z"
             id="path148175" />
        </g>
      </g>
    </g>
  </g>
</svg>
